3.2 Converting labelled vectors | Survey Research Datasets and R
…
And all labelled vectors in the data frame can be converted to factors in one go.

# Convert all labelled vectors to factors
to_factor(gss)
#> # A tibble: 2,348 x 1,065
#>    ABANY ABDEFECT ABFELEGL ABHELP1 ABHELP2 ABHELP3 ABHELP4 ABHLTH ABINSPAY
#>    <fct> <fct>    <fct>    <fct>   <fct>   <fct>   <fct>   <fct>  <fct>   
#>  1 NO    YES      IAP      Yes     Yes     Yes     Yes     YES    People …
#>  2 YES   YES      It depe… No      No      No      No      YES    People …
#>  3 IAP   IAP      IAP      Yes     No      Yes     Yes     IAP    People …
#>  4 IAP   IAP      Should   Yes     Yes     Yes     Yes     IAP    People …
#>  5 NO    YES      IAP      No      No      No      Yes     YES    People …
#>  6 YES   YES      Should   Yes     Yes     Yes     Yes     YES    People …
#>  7 YES   YES      It depe… Yes     No      Yes     Yes     YES    People …
#>  8 NO    YES      IAP      Yes     No      Yes     Yes     YES    No answ…
#>  9 IAP   IAP      It depe… Yes     Yes     Yes     Yes     IAP    People …
#> 10 IAP   IAP      IAP      Yes     No      No      Yes     IAP    People …
#> # … with 2,338 more rows, and 1,056 more variables: ABMEDGOV1 <fct>,
#> #   ABMEDGOV2 <fct>, ABMELEGL <fct>, ABMORAL <fct>, ABNOMORE <fct>,
#> #   ABPOOR <fct>, ABPOORW <fct>, ABRAPE <fct>, ABSINGLE <fct>, ABSTATE1 <fct>,
#> #   ABSTATE2 <fct>, ACQNTSEX <fct>, ACTSSOC <fct>, ADMINCONSENT <fct>,
#> #   ADULTS <fct>, ADVFRONT <fct>, AFFRMACT <fct>, AFRAIDOF <fct>,
#> #   AFTERLIF <fct>, AGE <fct>, AGED <fct>, AGEKDBRN <fct>, ANCESTRS <fct>,
#> #   ARTHRTIS <fct>, ASTROLGY <fct>, ASTROSCI <fct>, ATHEISTS <fct>,
#> #   ATTEND <fct>, ATTEND12 <fct>, ATTENDMA <fct>, ATTENDPA <fct>, AWAY1 <fct>,
#> #   AWAY11 <fct>, AWAY2 <fct>, AWAY3 <fct>, AWAY4 <fct>, AWAY5 <fct>,
…
