3.3 Exploring datasets | Survey Research Datasets and R
…
# Provide a variable summary as a tibble with one row per value
gss %>%
  look_for("medic(al|ation)") %>%
  lookfor_to_long_format()
#> # A tibble: 32 x 13
#>      pos variable label col_type class type  levels value_labels na_values
#>    <int> <chr>    <chr> <chr>    <nam> <chr> <chr>  <chr>        <named l>
#>  1   314 HELPSICK Shou… dbl+lbl  <chr… doub… <NA>   [0] IAP      <dbl [3]>
#>  2   314 HELPSICK Shou… dbl+lbl  <chr… doub… <NA>   [1] GOVT SH… <dbl [3]>
#>  3   314 HELPSICK Shou… dbl+lbl  <chr… doub… <NA>   [3] AGREE W… <dbl [3]>
#>  4   314 HELPSICK Shou… dbl+lbl  <chr… doub… <NA>   [5] PEOPLE … <dbl [3]>
#>  5   314 HELPSICK Shou… dbl+lbl  <chr… doub… <NA>   [8] DK       <dbl [3]>
#>  6   314 HELPSICK Shou… dbl+lbl  <chr… doub… <NA>   [9] NA       <dbl [3]>
#>  7   390 INTMED   Inte… dbl+lbl  <chr… doub… <NA>   [0] IAP      <dbl [3]>
#>  8   390 INTMED   Inte… dbl+lbl  <chr… doub… <NA>   [1] Very in… <dbl [3]>
#>  9   390 INTMED   Inte… dbl+lbl  <chr… doub… <NA>   [2] Moderat… <dbl [3]>
#> 10   390 INTMED   Inte… dbl+lbl  <chr… doub… <NA>   [3] Not at … <dbl [3]>
#> # … with 22 more rows, and 4 more variables: na_range <named list>,
#> #   unique_values <int>, n_na <int>, range <named list>
