5.2 JSON data | Survey Research Datasets and R
…
JSON data is often hierarchically structured or nested in this way, and you’ll need to work your way through the structure to get to the data you need.

class(bom_data)
#> [1] "list"
names(bom_data)
#> [1] "observations"
names(bom_data$observations)
#> [1] "notice" "header" "data"

class(bom_data$observations$data)
#> [1] "data.frame"
bom_data$observations$data %>% as_tibble()
#> # A tibble: 161 x 35
#>    sort_order   wmo name  history_product local_date_time local_date_time…
#>         <int> <int> <chr> <chr>           <chr>           <chr>           
#>  1          0 94866 Melb… IDV60901        01/02:00pm      20201201140000  
#>  2          1 94866 Melb… IDV60901        01/01:30pm      20201201133000  
#>  3          2 94866 Melb… IDV60901        01/01:00pm      20201201130000  
#>  4          3 94866 Melb… IDV60901        01/12:30pm      20201201123000  
#>  5          4 94866 Melb… IDV60901        01/12:27pm      20201201122700  
#>  6          5 94866 Melb… IDV60901        01/12:03pm      20201201120300  
#>  7          6 94866 Melb… IDV60901        01/12:00pm      20201201120000  
#>  8          7 94866 Melb… IDV60901        01/11:37am      20201201113700  
#>  9          8 94866 Melb… IDV60901        01/11:30am      20201201113000  
#> 10          9 94866 Melb… IDV60901        01/11:14am      20201201111400  
#> # … with 151 more rows, and 29 more variables: aifstime_utc <chr>, lat <dbl>,
#> #   lon <dbl>, apparent_t <dbl>, cloud <chr>, cloud_base_m <int>,
#> #   cloud_oktas <int>, cloud_type_id <int>, cloud_type <chr>, delta_t <dbl>,
#> #   gust_kmh <int>, gust_kt <int>, air_temp <dbl>, dewpt <dbl>, press <dbl>,
#> #   press_qnh <dbl>, press_msl <dbl>, press_tend <chr>, rain_trace <chr>,
#> #   rel_hum <int>, sea_state <chr>, swell_dir_worded <chr>, swell_height <lgl>,
#> #   swell_period <lgl>, vis_km <chr>, weather <chr>, wind_dir <chr>,
#> #   wind_spd_kmh <int>, wind_spd_kt <int>
…
