6 Official statistics | Survey Research Datasets and R
…
The example below presents birth and death rates from 1981 to 2020, using data loaded directly from the read_abs() function.

library(readabs)

# Load ABS National, state and territory population estimate
# https://www.abs.gov.au/statistics/people/population/national-state-and-territory-population/latest-release
pop <- read_abs("3101.0", tables = 1)
#> Finding filenames for tables corresponding to ABS catalogue 3101.0
#> Attempting to download files from catalogue 3101.0, National, state and territory population
#> Extracting data from downloaded spreadsheets
#> Tidying data from imported ABS spreadsheets

pop
#> # A tibble: 2,028 x 12
#>    table_no sheet_no table_title date       series value series_type data_type
#>    <chr>    <chr>    <chr>       <date>     <chr>  <dbl> <chr>       <chr>    
#>  1 310101   Data1    TABLE 1. P… 1981-06-01 Birth…  60.3 Original    FLOW     
#>  2 310101   Data1    TABLE 1. P… 1981-06-01 Death…  26.7 Original    FLOW     
#>  3 310101   Data1    TABLE 1. P… 1981-06-01 Natur…  33.6 Original    FLOW     
#>  4 310101   Data1    TABLE 1. P… 1981-06-01 Inter…  78   Original    FLOW     
#>  5 310101   Data1    TABLE 1. P… 1981-06-01 Inter…  78   Original    FLOW     
#>  6 310101   Data1    TABLE 1. P… 1981-06-01 Overs…  48.2 Original    FLOW     
#>  7 310101   Data1    TABLE 1. P… 1981-06-01 Overs…  19.1 Original    FLOW     
#>  8 310101   Data1    TABLE 1. P… 1981-06-01 Net P…  29.1 Original    FLOW     
#>  9 310101   Data1    TABLE 1. P… 1981-06-01 Migra…  -3.6 Original    FLOW     
#> 10 310101   Data1    TABLE 1. P… 1981-06-01 Net O…  25.6 Original    FLOW     
#> # … with 2,018 more rows, and 4 more variables: collection_month <chr>,
#> #   frequency <chr>, series_id <chr>, unit <chr>
…
